<!DOCTYPE svg PUBLIC "-//W3C//DTD SVG 1.1//EN"
        "http://www.w3.org/Graphics/SVG/1.1/DTD/svg11.dtd">
<svg xmlns="http://www.w3.org/2000/svg" xmlns:xlink="http://www.w3.org/1999/xlink" width="743px" height="580px"
     version="1.1">
    <defs/>
    <g transform="translate(0.5,0.5)">
        <path d="M 413 241 L 833 241 L 843 251 L 843 469 L 423 469 L 413 459 L 413 241 Z" fill="#ffffff"
              stroke="#000000" stroke-miterlimit="10" transform="rotate(90,628,355)" pointer-events="none"/>
        <path d="M 423 469 L 423 251 L 413 241 M 423 251 L 843 251" fill="none" stroke="#000000" stroke-miterlimit="10"
              transform="rotate(90,628,355)" pointer-events="none"/>
        <g transform="translate(518.5,155.5)">
            <switch>
                <foreignObject style="overflow:visible;" pointer-events="all" width="157" height="28"
                               requiredFeatures="http://www.w3.org/TR/SVG11/feature#Extensibility">
                    <div xmlns="http://www.w3.org/1999/xhtml"
                         style="display: inline-block; font-size: 12px; font-family: Verdana; color: rgb(0, 0, 0); line-height: 1.2; vertical-align: top; white-space: nowrap;">
                        <div xmlns="http://www.w3.org/1999/xhtml"
                             style="display:inline-block;text-align:inherit;text-decoration:inherit;">
                            <font>
                                <span style="font-size: 13px">&lt;&lt;</span>
                                <b>
                                    <font style="font-size: 14px">Authorization Server</font>
                                </b>
                                <span style="font-size: 13px">&gt;&gt;</span>
                                <br/>
                            </font>
                            <u>Keycloak</u>
                        </div>
                    </div>
                </foreignObject>
                <text x="79" y="20" fill="#000000" text-anchor="middle" font-size="12px" font-family="Verdana">[Not
                    supported by viewer]
                </text>
            </switch>
        </g>
        <path d="M 43.5 307.5 L 261.5 307.5 L 271.5 317.5 L 271.5 622.5 L 53.5 622.5 L 43.5 612.5 L 43.5 307.5 Z"
              fill="#ffffff" stroke="#000000" stroke-miterlimit="10" transform="rotate(90,157.5,465)"
              pointer-events="none"/>
        <path d="M 53.5 622.5 L 53.5 317.5 L 43.5 307.5 M 53.5 317.5 L 271.5 317.5" fill="none" stroke="#000000"
              stroke-miterlimit="10" transform="rotate(90,157.5,465)" pointer-events="none"/>
        <g transform="translate(4.5,366.5)">
            <switch>
                <foreignObject style="overflow:visible;" pointer-events="all" width="95" height="28"
                               requiredFeatures="http://www.w3.org/TR/SVG11/feature#Extensibility">
                    <div xmlns="http://www.w3.org/1999/xhtml"
                         style="display: inline-block; font-size: 12px; font-family: Verdana; color: rgb(0, 0, 0); line-height: 1.2; vertical-align: top; white-space: nowrap;">
                        <div xmlns="http://www.w3.org/1999/xhtml"
                             style="display:inline-block;text-align:inherit;text-decoration:inherit;">
                            <font style="font-size: 13px">&lt;&lt;</font>
                            <font style="font-size: 14px">
                                <b>Client App</b>
                            </font>
                            <font style="font-size: 13px">&gt;&gt;<br/>
                            </font>
                            <u>client-web-javalin</u>
                        </div>
                    </div>
                </foreignObject>
                <text x="48" y="20" fill="#000000" text-anchor="middle" font-size="12px" font-family="Verdana">[Not
                    supported by viewer]
                </text>
            </switch>
        </g>
        <g transform="translate(145.5,-0.5)">
            <switch>
                <foreignObject style="overflow:visible;" pointer-events="all" width="439" height="90"
                               requiredFeatures="http://www.w3.org/TR/SVG11/feature#Extensibility">
                    <div xmlns="http://www.w3.org/1999/xhtml"
                         style="display: inline-block; font-size: 12px; font-family: Helvetica; color: rgb(0, 0, 0); line-height: 1.2; vertical-align: top; overflow: hidden; max-height: 90px; max-width: 460px; width: 440px; white-space: normal; word-wrap: normal;">
                        <div xmlns="http://www.w3.org/1999/xhtml"
                             style="display:inline-block;text-align:inherit;text-decoration:inherit;">
                            <h1>OAuth - User Info use-case</h1>
                            <div>This is a very <b>specific</b> OAuth use-case. Often used, BUT really not
                                representative.
                            </div>
                            <div>OpenID Connect is similar and complementary</div>
                            <p></p>
                        </div>
                    </div>
                </foreignObject>
                <text x="220" y="51" fill="#000000" text-anchor="middle" font-size="12px" font-family="Helvetica">[Not
                    supported by viewer]
                </text>
            </switch>
        </g>
        <path d="M 594 380 C 594 353.33 664 353.33 664 380 L 664 438 C 664 464.67 594 464.67 594 438 Z" fill="#ffffff"
              stroke="#000000" stroke-miterlimit="10" pointer-events="none"/>
        <path d="M 594 380 C 594 400 664 400 664 380" fill="none" stroke="#000000" stroke-miterlimit="10"
              pointer-events="none"/>
        <g transform="translate(609.5,395.5)">
            <switch>
                <foreignObject style="overflow:visible;" pointer-events="all" width="38" height="56"
                               requiredFeatures="http://www.w3.org/TR/SVG11/feature#Extensibility">
                    <div xmlns="http://www.w3.org/1999/xhtml"
                         style="display: inline-block; font-size: 12px; font-family: Helvetica; color: rgb(0, 0, 0); line-height: 1.2; vertical-align: top; width: 40px; white-space: nowrap; word-wrap: normal; text-align: center;">
                        <div xmlns="http://www.w3.org/1999/xhtml"
                             style="display:inline-block;text-align:inherit;text-decoration:inherit;">
                            <font style="font-size: 14px">
                                <b>Users</b>
                                <br/>
                            </font>
                            toto<br/>...
                            <br/>
                            <br/>
                        </div>
                    </div>
                </foreignObject>
                <text x="19" y="34" fill="#000000" text-anchor="middle" font-size="12px" font-family="Helvetica">[Not
                    supported by viewer]
                </text>
            </switch>
        </g>
        <path d="M 629 360 L 629 360" fill="none" stroke="#000000" stroke-miterlimit="10" pointer-events="none"/>
        <path d="M 629 360 L 629 360 L 629 360 L 629 360 Z" fill="#000000" stroke="#000000" stroke-miterlimit="10"
              pointer-events="none"/>
        <path d="M 549 476 C 549 448 619 448 619 476 L 619 539 C 619 567 549 567 549 539 Z" fill="#ffffff"
              stroke="#000000" stroke-miterlimit="10" pointer-events="none"/>
        <path d="M 549 476 C 549 497 619 497 619 476" fill="none" stroke="#000000" stroke-miterlimit="10"
              pointer-events="none"/>
        <g transform="translate(551.5,487.5)">
            <switch>
                <foreignObject style="overflow:visible;" pointer-events="all" width="64" height="70"
                               requiredFeatures="http://www.w3.org/TR/SVG11/feature#Extensibility">
                    <div xmlns="http://www.w3.org/1999/xhtml"
                         style="display: inline-block; font-size: 12px; font-family: Helvetica; color: rgb(0, 0, 0); line-height: 1.2; vertical-align: top; width: 66px; white-space: nowrap; word-wrap: normal; text-align: center;">
                        <div xmlns="http://www.w3.org/1999/xhtml"
                             style="display:inline-block;text-align:inherit;text-decoration:inherit;">
                            <font style="font-size: 14px">
                                <b>Clients</b>
                                <br/>
                            </font>
                            rs-web...<br/>client-web...<br/>...
                            <br/>
                            <br/>
                        </div>
                    </div>
                </foreignObject>
                <text x="32" y="41" fill="#000000" text-anchor="middle" font-size="12px" font-family="Helvetica">[Not
                    supported by viewer]
                </text>
            </switch>
        </g>
        <path d="M 17 504 L 124 504 L 124 555 Q 97.25 538.8 70.5 555 Q 43.75 571.2 17 555 L 17 513 Z" fill="#ffffff"
              stroke="#000000" stroke-miterlimit="10" pointer-events="none"/>
        <g transform="translate(20.5,512.5)">
            <switch>
                <foreignObject style="overflow:visible;" pointer-events="all" width="99" height="26"
                               requiredFeatures="http://www.w3.org/TR/SVG11/feature#Extensibility">
                    <div xmlns="http://www.w3.org/1999/xhtml"
                         style="display: inline-block; font-size: 12px; font-family: Helvetica; color: rgb(0, 0, 0); line-height: 1.2; vertical-align: top; width: 99px; white-space: nowrap; word-wrap: normal; text-align: center;">
                        <div xmlns="http://www.w3.org/1999/xhtml"
                             style="display:inline-block;text-align:inherit;text-decoration:inherit;">Client
                            Credentials:
                            <br/>
                            <span>ID, </span>Secret
                            <br/>
                        </div>
                    </div>
                </foreignObject>
                <text x="50" y="19" fill="#000000" text-anchor="middle" font-size="12px" font-family="Helvetica">[Not
                    supported by viewer]
                </text>
            </switch>
        </g>
        <path d="M 646 476 C 646 448 716 448 716 476 L 716 539 C 716 567 646 567 646 539 Z" fill="#ffffff"
              stroke="#000000" stroke-miterlimit="10" pointer-events="none"/>
        <path d="M 646 476 C 646 497 716 497 716 476" fill="none" stroke="#000000" stroke-miterlimit="10"
              pointer-events="none"/>
        <g transform="translate(656.5,487.5)">
            <switch>
                <foreignObject style="overflow:visible;" pointer-events="all" width="48" height="70"
                               requiredFeatures="http://www.w3.org/TR/SVG11/feature#Extensibility">
                    <div xmlns="http://www.w3.org/1999/xhtml"
                         style="display: inline-block; font-size: 12px; font-family: Helvetica; color: rgb(0, 0, 0); line-height: 1.2; vertical-align: top; width: 48px; white-space: nowrap; word-wrap: normal; text-align: center;">
                        <div xmlns="http://www.w3.org/1999/xhtml"
                             style="display:inline-block;text-align:inherit;text-decoration:inherit;">
                            <font style="font-size: 14px">
                                <b>Tokens</b>
                                <br/>
                            </font>
                            Access<br/>Refresh<br/>...
                            <br/>
                            <br/>
                        </div>
                    </div>
                </foreignObject>
                <text x="24" y="41" fill="#000000" text-anchor="middle" font-size="12px" font-family="Helvetica">[Not
                    supported by viewer]
                </text>
            </switch>
        </g>
        <path d="M 30 427 C 30 405.67 100 405.67 100 427 L 100 473 C 100 494.33 30 494.33 30 473 Z" fill="#ffffff"
              stroke="#000000" stroke-miterlimit="10" pointer-events="none"/>
        <path d="M 30 427 C 30 443 100 443 100 427" fill="none" stroke="#000000" stroke-miterlimit="10"
              pointer-events="none"/>
        <g transform="translate(40.5,426.5)">
            <switch>
                <foreignObject style="overflow:visible;" pointer-events="all" width="48" height="70"
                               requiredFeatures="http://www.w3.org/TR/SVG11/feature#Extensibility">
                    <div xmlns="http://www.w3.org/1999/xhtml"
                         style="display: inline-block; font-size: 12px; font-family: Helvetica; color: rgb(0, 0, 0); line-height: 1.2; vertical-align: top; width: 48px; white-space: nowrap; word-wrap: normal; text-align: center;">
                        <div xmlns="http://www.w3.org/1999/xhtml"
                             style="display:inline-block;text-align:inherit;text-decoration:inherit;">
                            <font style="font-size: 14px">
                                <b>Tokens</b>
                                <br/>
                            </font>
                            Access<br/>Refresh<br/>...
                            <br/>
                            <br/>
                        </div>
                    </div>
                </foreignObject>
                <text x="24" y="41" fill="#000000" text-anchor="middle" font-size="12px" font-family="Helvetica">[Not
                    supported by viewer]
                </text>
            </switch>
        </g>
        <path d="M 195 228 Q 112 288 176.24 375.86" fill="none" stroke="#000000" stroke-miterlimit="10"
              pointer-events="none"/>
        <path d="M 179.34 380.1 L 172.38 376.51 L 176.24 375.86 L 178.03 372.38 Z" fill="#000000" stroke="#000000"
              stroke-miterlimit="10" pointer-events="none"/>
        <g transform="translate(114.5,261.5)">
            <switch>
                <foreignObject style="overflow:visible;" pointer-events="all" width="62" height="13"
                               requiredFeatures="http://www.w3.org/TR/SVG11/feature#Extensibility">
                    <div xmlns="http://www.w3.org/1999/xhtml"
                         style="display: inline-block; font-size: 12px; font-family: Helvetica; color: rgb(0, 0, 0); line-height: 1.2; vertical-align: top; white-space: nowrap; text-align: center;">
                        <div xmlns="http://www.w3.org/1999/xhtml"
                             style="display:inline-block;text-align:inherit;text-decoration:inherit;background-color:#ffffff;">
                            <b>
                                <font style="font-size: 13px">1</font>
                            </b>
                            : Connect 
                        </div>
                    </div>
                </foreignObject>
                <text x="31" y="13" fill="#000000" text-anchor="middle" font-size="12px" font-family="Helvetica">[Not
                    supported by viewer]
                </text>
            </switch>
        </g>
        <g transform="translate(146.5,134.5)">
            <switch>
                <foreignObject style="overflow:visible;" pointer-events="all" width="128" height="14"
                               requiredFeatures="http://www.w3.org/TR/SVG11/feature#Extensibility">
                    <div xmlns="http://www.w3.org/1999/xhtml"
                         style="display: inline-block; font-size: 12px; font-family: Helvetica; color: rgb(0, 0, 0); line-height: 1.2; vertical-align: top; white-space: nowrap;">
                        <div xmlns="http://www.w3.org/1999/xhtml"
                             style="display:inline-block;text-align:inherit;text-decoration:inherit;">&lt;&lt;<b>
                            <font face="Verdana" style="font-size: 14px">Resource Owner</font>
                        </b>&gt;&gt;
                        </div>
                    </div>
                </foreignObject>
                <text x="64" y="13" fill="#000000" text-anchor="middle" font-size="12px" font-family="Helvetica">[Not
                    supported by viewer]
                </text>
            </switch>
        </g>
        <ellipse cx="210" cy="167" rx="7.5" ry="7.5" fill="#dae8fc" stroke="#6c8ebf" pointer-events="none"/>
        <path d="M 209.5 174.5 L 209.5 199.5 M 209.5 179.5 L 194.5 179.5 M 209.5 179.5 L 224.5 179.5 M 209.5 199.5 L 194.5 219.5 M 209.5 199.5 L 224.5 219.5"
              fill="none" stroke="#6c8ebf" stroke-miterlimit="10" pointer-events="none"/>
        <g transform="translate(171.5,176.5)">
            <switch>
                <foreignObject style="overflow:visible;" pointer-events="all" width="20" height="26"
                               requiredFeatures="http://www.w3.org/TR/SVG11/feature#Extensibility">
                    <div xmlns="http://www.w3.org/1999/xhtml"
                         style="display: inline-block; font-size: 12px; font-family: Helvetica; color: rgb(0, 0, 0); line-height: 1.2; vertical-align: top; white-space: nowrap; text-align: right;">
                        <div xmlns="http://www.w3.org/1999/xhtml"
                             style="display:inline-block;text-align:inherit;text-decoration:inherit;background-color:#ffffff;">
                            toto
                            <br/>
                            <br/>
                        </div>
                    </div>
                </foreignObject>
                <text x="10" y="19" fill="#000000" text-anchor="middle" font-size="12px" font-family="Helvetica">[Not
                    supported by viewer]
                </text>
            </switch>
        </g>
        <path d="M 180 381 Q 207 308 202.4 234.36" fill="none" stroke="#000000" stroke-miterlimit="10"
              pointer-events="none"/>
        <path d="M 202.07 229.12 L 206 235.88 L 202.4 234.36 L 199.01 236.32 Z" fill="#000000" stroke="#000000"
              stroke-miterlimit="10" pointer-events="none"/>
        <g transform="translate(173.5,291.5)">
            <switch>
                <foreignObject style="overflow:visible;" pointer-events="all" width="45" height="26"
                               requiredFeatures="http://www.w3.org/TR/SVG11/feature#Extensibility">
                    <div xmlns="http://www.w3.org/1999/xhtml"
                         style="display: inline-block; font-size: 12px; font-family: Helvetica; color: rgb(0, 0, 0); line-height: 1.2; vertical-align: top; white-space: nowrap; text-align: center;">
                        <div xmlns="http://www.w3.org/1999/xhtml"
                             style="display:inline-block;text-align:inherit;text-decoration:inherit;background-color:#ffffff;">
                            Redirect<br/> to AS 
                        </div>
                    </div>
                </foreignObject>
                <text x="23" y="19" fill="#000000" text-anchor="middle" font-size="12px" font-family="Helvetica">[Not
                    supported by viewer]
                </text>
            </switch>
        </g>
        <rect x="144.5" y="380.5" width="140" height="62" fill="#ffffff" stroke="#000000" pointer-events="none"/>
        <g transform="translate(171.5,398.5)">
            <switch>
                <foreignObject style="overflow:visible;" pointer-events="all" width="85" height="26"
                               requiredFeatures="http://www.w3.org/TR/SVG11/feature#Extensibility">
                    <div xmlns="http://www.w3.org/1999/xhtml"
                         style="display: inline-block; font-size: 12px; font-family: Helvetica; color: rgb(0, 0, 0); line-height: 1.2; vertical-align: top; white-space: nowrap; text-align: center;">
                        <div xmlns="http://www.w3.org/1999/xhtml"
                             style="display:inline-block;text-align:inherit;text-decoration:inherit;">«Server HTTP»
                            <br/>
                            <b>Web Front End</b>
                        </div>
                    </div>
                </foreignObject>
                <text x="43" y="19" fill="#000000" text-anchor="middle" font-size="12px" font-family="Helvetica">[Not
                    supported by viewer]
                </text>
            </switch>
        </g>
        <path d="M 261.5 387.5 L 277.5 387.5 L 277.5 407.5 L 261.5 407.5 L 261.5 403.5 L 257.5 403.5 L 257.5 399.5 L 261.5 399.5 L 261.5 395.5 L 257.5 395.5 L 257.5 391.5 L 261.5 391.5 Z"
              fill="#ffffff" stroke="#000000" stroke-miterlimit="10" pointer-events="none"/>
        <path d="M 261.5 391.5 L 265.5 391.5 L 265.5 395.5 L 261.5 395.5 M 261.5 399.5 L 265.5 399.5 L 265.5 403.5 L 261.5 403.5"
              fill="none" stroke="#000000" stroke-miterlimit="10" pointer-events="none"/>
        <rect x="144.5" y="458.5" width="140" height="62" fill="#ffffff" stroke="#000000" pointer-events="none"/>
        <g transform="translate(155.5,476.5)">
            <switch>
                <foreignObject style="overflow:visible;" pointer-events="all" width="117" height="26"
                               requiredFeatures="http://www.w3.org/TR/SVG11/feature#Extensibility">
                    <div xmlns="http://www.w3.org/1999/xhtml"
                         style="display: inline-block; font-size: 12px; font-family: Helvetica; color: rgb(0, 0, 0); line-height: 1.2; vertical-align: top; white-space: nowrap; text-align: center;">
                        <div xmlns="http://www.w3.org/1999/xhtml"
                             style="display:inline-block;text-align:inherit;text-decoration:inherit;">«Client HTTP»
                            <br/>
                            <b>OAuth back-channel</b>
                        </div>
                    </div>
                </foreignObject>
                <text x="59" y="19" fill="#000000" text-anchor="middle" font-size="12px" font-family="Helvetica">«Client
                    HTTP»&lt;br&gt;&lt;b&gt;OAuth back-channel&lt;/b&gt;
                </text>
            </switch>
        </g>
        <path d="M 261.5 465.5 L 277.5 465.5 L 277.5 485.5 L 261.5 485.5 L 261.5 481.5 L 257.5 481.5 L 257.5 477.5 L 261.5 477.5 L 261.5 473.5 L 257.5 473.5 L 257.5 469.5 L 261.5 469.5 Z"
              fill="#ffffff" stroke="#000000" stroke-miterlimit="10" pointer-events="none"/>
        <path d="M 261.5 469.5 L 265.5 469.5 L 265.5 473.5 L 261.5 473.5 M 261.5 477.5 L 265.5 477.5 L 265.5 481.5 L 261.5 481.5"
              fill="none" stroke="#000000" stroke-miterlimit="10" pointer-events="none"/>
        <path d="M 241.67 219.53 L 242.18 222.46 L 225.49 219.91 L 240.32 211.85 L 240.84 214.78 L 361.18 193.69 Q 361.99 193.55 362.8 193.69 L 526.12 220.91 L 526.61 217.97 L 541.51 225.92 L 524.84 228.6 L 525.33 225.67 L 362.01 198.45 Z"
              fill="none" stroke="#000000" stroke-linejoin="round" stroke-miterlimit="10" pointer-events="none"/>
        <path d="M 241.67 219.53 L 242.18 222.46 L 225.49 219.91 L 240.32 211.85 L 240.84 214.78" fill="none"
              stroke="#000000" stroke-linejoin="flat" stroke-miterlimit="4" pointer-events="none"/>
        <path d="M 526.12 220.91 L 526.61 217.97 L 541.51 225.92 L 524.84 228.6 L 525.33 225.67" fill="none"
              stroke="#000000" stroke-linejoin="flat" stroke-miterlimit="4" pointer-events="none"/>
        <g transform="translate(322.5,173.5)">
            <switch>
                <foreignObject style="overflow:visible;" pointer-events="all" width="107" height="27"
                               requiredFeatures="http://www.w3.org/TR/SVG11/feature#Extensibility">
                    <div xmlns="http://www.w3.org/1999/xhtml"
                         style="display: inline-block; font-size: 12px; font-family: Helvetica; color: rgb(0, 0, 0); line-height: 1.2; vertical-align: top; white-space: nowrap; text-align: center;">
                        <div xmlns="http://www.w3.org/1999/xhtml"
                             style="display:inline-block;text-align:inherit;text-decoration:inherit;background-color:#ffffff;">
                            <b>
                                <font style="font-size: 13px">2</font>
                            </b>
                            : Authenticate me<br/>and authorize Client
                            <br/>
                        </div>
                    </div>
                </foreignObject>
                <text x="54" y="20" fill="#000000" text-anchor="middle" font-size="12px" font-family="Helvetica">[Not
                    supported by viewer]
                </text>
            </switch>
        </g>
        <rect x="542" y="210.5" width="140" height="62" fill="#ffffff" stroke="#000000" pointer-events="none"/>
        <g transform="translate(569.5,228.5)">
            <switch>
                <foreignObject style="overflow:visible;" pointer-events="all" width="85" height="26"
                               requiredFeatures="http://www.w3.org/TR/SVG11/feature#Extensibility">
                    <div xmlns="http://www.w3.org/1999/xhtml"
                         style="display: inline-block; font-size: 12px; font-family: Helvetica; color: rgb(0, 0, 0); line-height: 1.2; vertical-align: top; white-space: nowrap; text-align: center;">
                        <div xmlns="http://www.w3.org/1999/xhtml"
                             style="display:inline-block;text-align:inherit;text-decoration:inherit;">«Server HTTP»
                            <br/>
                            <b>Web Front End</b>
                        </div>
                    </div>
                </foreignObject>
                <text x="43" y="19" fill="#000000" text-anchor="middle" font-size="12px" font-family="Helvetica">[Not
                    supported by viewer]
                </text>
            </switch>
        </g>
        <path d="M 659 217.5 L 675 217.5 L 675 237.5 L 659 237.5 L 659 233.5 L 655 233.5 L 655 229.5 L 659 229.5 L 659 225.5 L 655 225.5 L 655 221.5 L 659 221.5 Z"
              fill="#ffffff" stroke="#000000" stroke-miterlimit="10" pointer-events="none"/>
        <path d="M 659 221.5 L 663 221.5 L 663 225.5 L 659 225.5 M 659 229.5 L 663 229.5 L 663 233.5 L 659 233.5"
              fill="none" stroke="#000000" stroke-miterlimit="10" pointer-events="none"/>
        <path d="M 542 226 Q 362 258 232.58 222.1" fill="none" stroke="#000000" stroke-miterlimit="10"
              pointer-events="none"/>
        <path d="M 226.08 220.3 L 235.95 218.37 L 232.58 222.1 L 233.55 227.04 Z" fill="#000000" stroke="#000000"
              stroke-miterlimit="10" pointer-events="none"/>
        <g transform="translate(344.5,227.5)">
            <switch>
                <foreignObject style="overflow:visible;" pointer-events="all" width="95" height="26"
                               requiredFeatures="http://www.w3.org/TR/SVG11/feature#Extensibility">
                    <div xmlns="http://www.w3.org/1999/xhtml"
                         style="display: inline-block; font-size: 12px; font-family: Helvetica; color: rgb(0, 0, 0); line-height: 1.2; vertical-align: top; white-space: nowrap; text-align: center;">
                        <div xmlns="http://www.w3.org/1999/xhtml"
                             style="display:inline-block;text-align:inherit;text-decoration:inherit;background-color:#ffffff;">
                            Redirect to Client
                            <br/>
                            <font style="font-size: 9px">with Authorization Code</font>
                            <br/>
                        </div>
                    </div>
                </foreignObject>
                <text x="48" y="19" fill="#000000" text-anchor="middle" font-size="12px" font-family="Helvetica">[Not
                    supported by viewer]
                </text>
            </switch>
        </g>
        <rect x="542" y="284.5" width="140" height="62" fill="#ffffff" stroke="#000000" pointer-events="none"/>
        <g transform="translate(548.5,302.5)">
            <switch>
                <foreignObject style="overflow:visible;" pointer-events="all" width="127" height="26"
                               requiredFeatures="http://www.w3.org/TR/SVG11/feature#Extensibility">
                    <div xmlns="http://www.w3.org/1999/xhtml"
                         style="display: inline-block; font-size: 12px; font-family: Helvetica; color: rgb(0, 0, 0); line-height: 1.2; vertical-align: top; white-space: nowrap; text-align: center;">
                        <div xmlns="http://www.w3.org/1999/xhtml"
                             style="display:inline-block;text-align:inherit;text-decoration:inherit;">«Server HTTP»
                            <br/>
                            <b>OAuth REST Endpoint</b>
                        </div>
                    </div>
                </foreignObject>
                <text x="64" y="19" fill="#000000" text-anchor="middle" font-size="12px" font-family="Helvetica">«Server
                    HTTP»&lt;br&gt;&lt;b&gt;OAuth REST Endpoint&lt;/b&gt;
                </text>
            </switch>
        </g>
        <path d="M 659 291.5 L 675 291.5 L 675 311.5 L 659 311.5 L 659 307.5 L 655 307.5 L 655 303.5 L 659 303.5 L 659 299.5 L 655 299.5 L 655 295.5 L 659 295.5 Z"
              fill="#ffffff" stroke="#000000" stroke-miterlimit="10" pointer-events="none"/>
        <path d="M 659 295.5 L 663 295.5 L 663 299.5 L 659 299.5 M 659 303.5 L 663 303.5 L 663 307.5 L 659 307.5"
              fill="none" stroke="#000000" stroke-miterlimit="10" pointer-events="none"/>
        <path d="M 285 474 Q 372 378 536.21 302.66" fill="none" stroke="#000000" stroke-miterlimit="10"
              pointer-events="none"/>
        <path d="M 540.98 300.47 L 536.08 306.57 L 536.21 302.66 L 533.16 300.2 Z" fill="#000000" stroke="#000000"
              stroke-miterlimit="10" pointer-events="none"/>
        <g transform="translate(364.5,341.5)">
            <switch>
                <foreignObject style="overflow:visible;" pointer-events="all" width="111" height="27"
                               requiredFeatures="http://www.w3.org/TR/SVG11/feature#Extensibility">
                    <div xmlns="http://www.w3.org/1999/xhtml"
                         style="display: inline-block; font-size: 12px; font-family: Helvetica; color: rgb(0, 0, 0); line-height: 1.2; vertical-align: top; white-space: nowrap; text-align: center;">
                        <div xmlns="http://www.w3.org/1999/xhtml"
                             style="display:inline-block;text-align:inherit;text-decoration:inherit;background-color:#ffffff;">
                            <b>
                                <font style="font-size: 13px">4</font>
                            </b>
                            : Get Access Token
                            <br/>
                            <font style="font-size: 9px">with Authorization Code</font>
                            <br/>
                        </div>
                    </div>
                </foreignObject>
                <text x="56" y="20" fill="#000000" text-anchor="middle" font-size="12px" font-family="Helvetica">[Not
                    supported by viewer]
                </text>
            </switch>
        </g>
        <path d="M 285 505 Q 402 438 536.94 334.87" fill="none" stroke="#000000" stroke-miterlimit="10"
              pointer-events="none"/>
        <path d="M 541.11 331.68 L 537.68 338.71 L 536.94 334.87 L 533.42 333.15 Z" fill="#000000" stroke="#000000"
              stroke-miterlimit="10" pointer-events="none"/>
        <g transform="translate(391.5,418.5)">
            <switch>
                <foreignObject style="overflow:visible;" pointer-events="all" width="89" height="41"
                               requiredFeatures="http://www.w3.org/TR/SVG11/feature#Extensibility">
                    <div xmlns="http://www.w3.org/1999/xhtml"
                         style="display: inline-block; font-size: 12px; font-family: Helvetica; color: rgb(0, 0, 0); line-height: 1.2; vertical-align: top; white-space: nowrap; text-align: center;">
                        <div xmlns="http://www.w3.org/1999/xhtml"
                             style="display:inline-block;text-align:inherit;text-decoration:inherit;background-color:#ffffff;">
                            <b>
                                <font style="font-size: 13px">5</font>
                            </b>
                            : Get User Info
                            <br/>
                            <font>
                                <font style="font-style: italic ; font-size: 9px">email, age, address ...</font>
                                <br/>
                                <font style="font-size: 9px">with Access Token</font>
                            </font>
                            <br/>
                        </div>
                    </div>
                </foreignObject>
                <text x="45" y="27" fill="#000000" text-anchor="middle" font-size="12px" font-family="Helvetica">[Not
                    supported by viewer]
                </text>
            </switch>
        </g>
        <path d="M 222 228 Q 282 288 252.56 373.56" fill="none" stroke="#000000" stroke-miterlimit="10"
              pointer-events="none"/>
        <path d="M 250.36 379.94 L 249.04 369.97 L 252.56 373.56 L 257.55 372.9 Z" fill="#000000" stroke="#000000"
              stroke-miterlimit="10" pointer-events="none"/>
        <g transform="translate(249.5,284.5)">
            <switch>
                <foreignObject style="overflow:visible;" pointer-events="all" width="95" height="27"
                               requiredFeatures="http://www.w3.org/TR/SVG11/feature#Extensibility">
                    <div xmlns="http://www.w3.org/1999/xhtml"
                         style="display: inline-block; font-size: 12px; font-family: Helvetica; color: rgb(0, 0, 0); line-height: 1.2; vertical-align: top; white-space: nowrap;">
                        <div xmlns="http://www.w3.org/1999/xhtml"
                             style="display:inline-block;text-align:inherit;text-decoration:inherit;background-color:#ffffff;">
                            <b>
                                <font style="font-size: 13px">3</font>
                            </b>
                            : Request
                            <br/>
                            <font style="font-size: 9px">with Authorization Code</font>
                            <br/>
                        </div>
                    </div>
                </foreignObject>
                <text x="48" y="20" fill="#000000" text-anchor="middle" font-size="12px" font-family="Helvetica">[Not
                    supported by viewer]
                </text>
            </switch>
        </g>
        <path d="M 1 123 L 108 123 L 129 144 L 129 181 L 1 181 L 1 123 Z" fill="#ffffff" stroke="#000000"
              stroke-miterlimit="10" pointer-events="none"/>
        <path d="M 108 123 L 108 144 L 129 144" fill="none" stroke="#000000" stroke-miterlimit="10"
              pointer-events="none"/>
        <g transform="translate(6.5,138.5)">
            <switch>
                <foreignObject style="overflow:visible;" pointer-events="all" width="116" height="34"
                               requiredFeatures="http://www.w3.org/TR/SVG11/feature#Extensibility">
                    <div xmlns="http://www.w3.org/1999/xhtml"
                         style="display: inline-block; font-size: 10px; font-family: Helvetica; color: rgb(0, 0, 0); line-height: 1.2; vertical-align: top; width: 116px; white-space: normal; word-wrap: normal; text-align: center;">
                        <div xmlns="http://www.w3.org/1999/xhtml"
                             style="display:inline-block;text-align:inherit;text-decoration:inherit;">
                            <div style="text-align: left ; font-size: 10px">
                                <font style="font-size: 10px" color="#878787"><i style="font-size: 10px">Note</i>: 
                                </font>
                            </div>
                            <div style="text-align: left ; font-size: 10px">
                                <font style="font-size: 10px">The Browser does NOT see the Access Token</font>
                            </div>
                        </div>
                    </div>
                </foreignObject>
                <text x="58" y="22" fill="#000000" text-anchor="middle" font-size="10px" font-family="Helvetica">[Not
                    supported by viewer]
                </text>
            </switch>
        </g>
        <path d="M 376 475 L 480 475 L 501 496 L 501 540 L 376 540 L 376 475 Z" fill="#ffffff" stroke="#000000"
              stroke-miterlimit="10" pointer-events="none"/>
        <path d="M 480 475 L 480 496 L 501 496" fill="none" stroke="#000000" stroke-miterlimit="10"
              pointer-events="none"/>
        <g transform="translate(381.5,485.5)">
            <switch>
                <foreignObject style="overflow:visible;" pointer-events="all" width="113" height="46"
                               requiredFeatures="http://www.w3.org/TR/SVG11/feature#Extensibility">
                    <div xmlns="http://www.w3.org/1999/xhtml"
                         style="display: inline-block; font-size: 10px; font-family: Helvetica; color: rgb(0, 0, 0); line-height: 1.2; vertical-align: top; width: 113px; white-space: normal; word-wrap: normal; text-align: center;">
                        <div xmlns="http://www.w3.org/1999/xhtml"
                             style="display:inline-block;text-align:inherit;text-decoration:inherit;">
                            <div style="text-align: left ; font-size: 10px">
                                <font style="font-size: 10px" color="#878787"><i style="font-size: 10px">Note</i>: 
                                </font>
                            </div>
                            <div style="text-align: left ; font-size: 10px">
                                <font style="font-size: 10px">User Info are served by the AS, as if it was a Resource
                                    Server
                                </font>
                            </div>
                        </div>
                    </div>
                </foreignObject>
                <text x="57" y="28" fill="#000000" text-anchor="middle" font-size="10px" font-family="Helvetica">[Not
                    supported by viewer]
                </text>
            </switch>
        </g>
    </g>
</svg>